{
  "defaultSeverity": "error",
  "extends": [
    "tslint:recommended",
    "tslint-config-airbnb"
  ],
  "jsRules": {},
  "rules": {
    "member-ordering": false,
    "ter-arrow-parens": false,
    "ordered-imports": false,
    "import-name": false,
    "array-type": false, // has conflict with another rule - prefer arrays literal
    "object-literal-sort-keys": false,
    "variable-name": [
      true,
      "ban-keywords",
      "check-format",
      "allow-pascal-case",
      "allow-leading-underscore"
    ],
    "max-line-length": [
      true,
      {
        "limit": 500
      }
    ]
  },
  "rulesDirectory": []
}